0.0000 10578
0.5000 10485
1.0000 10368
1.5000 10514
2.0000 10428
2.5000 10499
3.0000 10551
3.5000 10544
4.0000 10430
4.5000 10315
5.0000 10553
5.5000 10460
6.0000 10506
6.5000 10487
7.0000 10666
7.5000 10480
8.0000 10417
8.5000 10579
9.0000 10526
9.5000 10573
10.0000 10541
10.5000 10470
11.0000 10582
11.5000 10345
12.0000 10464
12.5000 10367
13.0000 10444
13.5000 10444
14.0000 10471
14.5000 10384
15.0000 10404
15.5000 10486
16.0000 10319
16.5000 10414
17.0000 10548
17.5000 10678
18.0000 10542
18.5000 10470
19.0000 10412
19.5000 10456
20.0000 10194
20.5000 10450
21.0000 10516
21.5000 10634
22.0000 10305
22.5000 10441
23.0000 10623
23.5000 10368
24.0000 10680
24.5000 10604
25.0000 10709
25.5000 10402
26.0000 10408
26.5000 10428
27.0000 10551
27.5000 10439
28.0000 10499
28.5000 10434
29.0000 10356
29.5000 10474
30.0000 10501
30.5000 10449
31.0000 10466
31.5000 10395
32.0000 10415
32.5000 10388
33.0000 10609
33.5000 10420
34.0000 10555
34.5000 10525
35.0000 10640
35.5000 10484
36.0000 10534
36.5000 10322
37.0000 10480
37.5000 10317
38.0000 10591
38.5000 10533
39.0000 10491
39.5000 10465
40.0000 10477
40.5000 10660
41.0000 10554
41.5000 10511
42.0000 10596
42.5000 10425
43.0000 10467
43.5000 10400
44.0000 10542
44.5000 10271
45.0000 10354
45.5000 10455
46.0000 10386
46.5000 10247
47.0000 10486
47.5000 10481
48.0000 10609
48.5000 10443
49.0000 10361
49.5000 10512
50.0000 10503
50.5000 10371
51.0000 10492
51.5000 10474
52.0000 10465
52.5000 10374
53.0000 10544
53.5000 10724
54.0000 10452
54.5000 10403
55.0000 10481
55.5000 10426
56.0000 10473
56.5000 10515
57.0000 10423
57.5000 10470
58.0000 10329
58.5000 10441
59.0000 10376
59.5000 10372
60.0000 10433
60.5000 10574
61.0000 10394
61.5000 10515
62.0000 10560
62.5000 10434
63.0000 10493
63.5000 10561
64.0000 10504
64.5000 10443
65.0000 10344
65.5000 10471
66.0000 10489
66.5000 10441
67.0000 10419
67.5000 10452
68.0000 10492
68.5000 10473
69.0000 10571
69.5000 10353
70.0000 10316
70.5000 10441
71.0000 10467
71.5000 10516
72.0000 10455
72.5000 10284
73.0000 10417
73.5000 10589
74.0000 10611
74.5000 10455
75.0000 10551
75.5000 10517
76.0000 10599
76.5000 10305
77.0000 10405
77.5000 10432
78.0000 10516
78.5000 10531
79.0000 10421
79.5000 10371
80.0000 10241
80.5000 10583
81.0000 10433
81.5000 10467
82.0000 10572
82.5000 10397
83.0000 10549
83.5000 10415
84.0000 10300
84.5000 10601
85.0000 10432
85.5000 10408
86.0000 10570
86.5000 10424
87.0000 10544
87.5000 10712
88.0000 10435
88.5000 10492
89.0000 10307
89.5000 10527
90.0000 10494
90.5000 10575
91.0000 10479
91.5000 10476
92.0000 10754
92.5000 10484
93.0000 10470
93.5000 10374
94.0000 10483
94.5000 10587
95.0000 10476
95.5000 10506
96.0000 10407
96.5000 10458
97.0000 10453
97.5000 10503
98.0000 10355
98.5000 10345
99.0000 10567
99.5000 10578
100.0000 10619
100.5000 10352
101.0000 10596
101.5000 10549
102.0000 10470
102.5000 10201
103.0000 10303
103.5000 10297
104.0000 10595
104.5000 10370
105.0000 10574
105.5000 10422
106.0000 10527
106.5000 10445
107.0000 10468
107.5000 10297
108.0000 10621
108.5000 10598
109.0000 10303
109.5000 10397
110.0000 10438
110.5000 10391
111.0000 10461
111.5000 10471
112.0000 10282
112.5000 10543
113.0000 10742
113.5000 10519
114.0000 10345
114.5000 10439
115.0000 10502
115.5000 10448
116.0000 10420
116.5000 10468
117.0000 10508
117.5000 10482
118.0000 10467
118.5000 10387
119.0000 10435
119.5000 10524
120.0000 10427
120.5000 10382
121.0000 9055
121.5000 4011
122.0000 122
122.5000 28
123.0000 17
123.5000 12
124.0000 5
124.5000 2
125.0000 2
125.5000 3
126.0000 1
126.5000 1
127.0000 0
127.5000 1
128.0000 2
128.5000 1
129.0000 0
129.5000 1
130.0000 0
130.5000 0
131.0000 0
131.5000 1
132.0000 0
132.5000 1
133.0000 2
133.5000 1
134.0000 0
134.5000 1
135.0000 0
135.5000 3
136.0000 2
136.5000 1
137.0000 2
137.5000 0
138.0000 0
138.5000 1
139.0000 1
139.5000 1
140.0000 1
140.5000 0
141.0000 0
141.5000 2
142.0000 1
142.5000 0
143.0000 0
143.5000 0
144.0000 0
144.5000 0
145.0000 1
145.5000 0
146.0000 2
146.5000 1
147.0000 0
147.5000 0
148.0000 0
148.5000 0
149.0000 1
149.5000 0
150.0000 0
150.5000 1
151.0000 0
151.5000 1
152.0000 0
152.5000 1
153.0000 0
153.5000 3
154.0000 2
154.5000 0
155.0000 0
155.5000 0
156.0000 0
156.5000 1
157.0000 1
157.5000 2
158.0000 1
158.5000 2
159.0000 1
159.5000 2
160.0000 0
160.5000 0
161.0000 0
161.5000 0
162.0000 3
162.5000 1
163.0000 1
163.5000 1
164.0000 0
164.5000 0
165.0000 2
165.5000 0
166.0000 2
166.5000 0
167.0000 0
167.5000 0
168.0000 2
168.5000 2
169.0000 1
169.5000 1
170.0000 2
170.5000 0
171.0000 1
171.5000 1
172.0000 1
172.5000 0
173.0000 0
173.5000 0
174.0000 1
174.5000 1
175.0000 1
175.5000 0
176.0000 2
176.5000 1
177.0000 0
177.5000 0
178.0000 1
178.5000 1
179.0000 1
179.5000 1
180.0000 1
180.5000 1
181.0000 1
181.5000 0
182.0000 2
182.5000 2
183.0000 3
183.5000 1
184.0000 1
184.5000 0
185.0000 0
185.5000 1
186.0000 1
186.5000 0
187.0000 2
187.5000 0
188.0000 0
188.5000 0
189.0000 0
189.5000 1
190.0000 0
190.5000 0
191.0000 0
191.5000 0
192.0000 2
192.5000 2
193.0000 2
193.5000 0
194.0000 4
194.5000 0
195.0000 1
195.5000 0
196.0000 1
196.5000 1
197.0000 1
197.5000 0
198.0000 0
198.5000 1
199.0000 1
199.5000 2
200.0000 0
200.5000 2
201.0000 1
201.5000 1
202.0000 1
202.5000 0
203.0000 0
203.5000 0
204.0000 1
204.5000 1
205.0000 1
205.5000 1
206.0000 2
206.5000 0
207.0000 0
207.5000 2
208.0000 1
208.5000 0
209.0000 1
209.5000 0
210.0000 2
210.5000 0
211.0000 1
211.5000 3
212.0000 0
212.5000 2
213.0000 0
213.5000 0
214.0000 0
214.5000 0
215.0000 1
215.5000 2
216.0000 2
216.5000 0
217.0000 1
217.5000 1
218.0000 2
218.5000 0
219.0000 1
219.5000 1
220.0000 3
220.5000 1
221.0000 2
221.5000 0
222.0000 0
222.5000 1
223.0000 1
223.5000 1
224.0000 0
224.5000 0
225.0000 0
225.5000 3
226.0000 1
226.5000 0
227.0000 1
227.5000 2
228.0000 1
228.5000 0
229.0000 0
229.5000 0
230.0000 0
230.5000 2
231.0000 1
231.5000 0
232.0000 1
232.5000 2
233.0000 0
233.5000 0
234.0000 1
234.5000 3
235.0000 1
235.5000 1
236.0000 0
236.5000 2
237.0000 0
237.5000 0
238.0000 1
238.5000 0
239.0000 1
239.5000 1
240.0000 1
240.5000 2
241.0000 1
241.5000 1
242.0000 0
242.5000 0
243.0000 1
243.5000 0
244.0000 2
244.5000 1
245.0000 0
245.5000 0
246.0000 3
246.5000 0
247.0000 2
247.5000 2
248.0000 1
248.5000 2
249.0000 0
249.5000 0
250.0000 1
250.5000 3
251.0000 0
251.5000 0
252.0000 1
252.5000 1
253.0000 1
253.5000 0
254.0000 0
254.5000 1
255.0000 1
255.5000 1
256.0000 1
256.5000 4
257.0000 1
257.5000 0
258.0000 3
258.5000 2
259.0000 1
259.5000 0
260.0000 0
260.5000 1
261.0000 1
261.5000 4
262.0000 0
262.5000 3
263.0000 1
263.5000 0
264.0000 1
264.5000 3
265.0000 2
265.5000 0
266.0000 2
266.5000 1
267.0000 1
267.5000 0
268.0000 1
268.5000 1
269.0000 3
269.5000 1
270.0000 0
270.5000 1
271.0000 0
271.5000 2
272.0000 2
272.5000 1
273.0000 2
273.5000 3
274.0000 1
274.5000 2
275.0000 1
275.5000 2
276.0000 0
276.5000 4
277.0000 1
277.5000 2
278.0000 0
278.5000 0
279.0000 0
279.5000 2
280.0000 0
280.5000 1
281.0000 1
281.5000 2
282.0000 1
282.5000 0
283.0000 0
283.5000 4
284.0000 0
284.5000 2
285.0000 1
285.5000 1
286.0000 1
286.5000 0
287.0000 0
287.5000 0
288.0000 3
288.5000 2
289.0000 0
289.5000 1
290.0000 1
290.5000 0
291.0000 1
291.5000 1
292.0000 0
292.5000 0
293.0000 3
293.5000 0
294.0000 0
294.5000 1
295.0000 2
295.5000 1
296.0000 1
296.5000 1
297.0000 1
297.5000 1
298.0000 2
298.5000 4
299.0000 2
299.5000 1
300.0000 1
300.5000 2
301.0000 0
301.5000 1
302.0000 1
302.5000 2
303.0000 2
303.5000 1
304.0000 0
304.5000 1
305.0000 2
305.5000 1
306.0000 0
306.5000 0
307.0000 1
307.5000 0
308.0000 1
308.5000 2
309.0000 1
309.5000 0
310.0000 2
310.5000 4
311.0000 0
311.5000 2
312.0000 1
312.5000 1
313.0000 3
313.5000 1
314.0000 0
314.5000 2
315.0000 0
315.5000 2
316.0000 0
316.5000 2
317.0000 1
317.5000 1
318.0000 0
318.5000 2
319.0000 2
319.5000 4
320.0000 0
320.5000 2
321.0000 1
321.5000 1
322.0000 0
322.5000 1
323.0000 0
323.5000 0
324.0000 1
324.5000 0
325.0000 1
325.5000 2
326.0000 1
326.5000 0
327.0000 2
327.5000 2
328.0000 0
328.5000 2
329.0000 0
329.5000 2
330.0000 0
330.5000 2
331.0000 1
331.5000 0
332.0000 2
332.5000 2
333.0000 1
333.5000 0
334.0000 2
334.5000 0
335.0000 1
335.5000 0
336.0000 2
336.5000 1
337.0000 2
337.5000 0
338.0000 0
338.5000 2
339.0000 2
339.5000 0
340.0000 1
340.5000 1
341.0000 1
341.5000 0
342.0000 0
342.5000 0
343.0000 1
343.5000 1
344.0000 2
344.5000 0
345.0000 1
345.5000 1
346.0000 0
346.5000 1
347.0000 1
347.5000 1
348.0000 1
348.5000 0
349.0000 2
349.5000 1
350.0000 2
350.5000 3
351.0000 0
351.5000 0
352.0000 0
352.5000 3
353.0000 0
353.5000 2
354.0000 3
354.5000 0
355.0000 1
355.5000 1
356.0000 0
356.5000 0
357.0000 1
357.5000 0
358.0000 1
358.5000 2
359.0000 1
359.5000 3
360.0000 0
360.5000 1
361.0000 1
361.5000 1
362.0000 1
362.5000 1
363.0000 3
363.5000 0
364.0000 0
364.5000 2
365.0000 0
365.5000 1
366.0000 0
366.5000 2
367.0000 1
367.5000 0
368.0000 2
368.5000 1
369.0000 1
369.5000 0
370.0000 0
370.5000 2
371.0000 0
371.5000 1
372.0000 0
372.5000 0
373.0000 0
373.5000 0
374.0000 2
374.5000 0
375.0000 2
375.5000 1
376.0000 3
376.5000 1
377.0000 1
377.5000 1
378.0000 0
378.5000 0
379.0000 1
379.5000 1
380.0000 0
380.5000 1
381.0000 1
381.5000 2
382.0000 1
382.5000 0
383.0000 0
383.5000 1
384.0000 0
384.5000 0
385.0000 1
385.5000 0
386.0000 1
386.5000 2
387.0000 0
387.5000 0
388.0000 1
388.5000 0
389.0000 4
389.5000 0
390.0000 0
390.5000 0
391.0000 0
391.5000 2
392.0000 1
392.5000 1
393.0000 1
393.5000 0
394.0000 2
394.5000 0
395.0000 1
395.5000 1
396.0000 0
396.5000 0
397.0000 0
397.5000 0
398.0000 2
398.5000 0
399.0000 0
399.5000 1
400.0000 1
400.5000 2
401.0000 2
401.5000 1
402.0000 0
402.5000 1
403.0000 1
403.5000 1
404.0000 1
404.5000 0
405.0000 0
405.5000 1
406.0000 1
406.5000 1
407.0000 2
407.5000 0
408.0000 1
408.5000 0
409.0000 1
409.5000 1
410.0000 1
410.5000 2
411.0000 0
411.5000 4
412.0000 0
412.5000 0
413.0000 0
413.5000 0
414.0000 1
414.5000 2
415.0000 2
415.5000 0
416.0000 2
416.5000 0
417.0000 2
417.5000 0
418.0000 0
418.5000 0
419.0000 2
419.5000 3
420.0000 1
420.5000 0
421.0000 0
421.5000 3
422.0000 1
422.5000 4
423.0000 0
423.5000 0
424.0000 1
424.5000 2
425.0000 2
425.5000 1
426.0000 1
426.5000 1
427.0000 0
427.5000 1
428.0000 0
428.5000 1
429.0000 2
429.5000 0
430.0000 0
430.5000 0
431.0000 1
431.5000 0
432.0000 1
432.5000 1
433.0000 0
433.5000 1
434.0000 0
434.5000 1
435.0000 2
435.5000 1
436.0000 1
436.5000 2
437.0000 3
437.5000 2
438.0000 0
438.5000 0
439.0000 1
439.5000 1
440.0000 0
440.5000 1
441.0000 2
441.5000 0
442.0000 0
442.5000 0
443.0000 2
443.5000 2
444.0000 2
444.5000 0
445.0000 3
445.5000 1
446.0000 0
446.5000 3
447.0000 1
447.5000 1
448.0000 1
448.5000 2
449.0000 0
449.5000 1
450.0000 1
450.5000 2
451.0000 2
451.5000 0
452.0000 1
452.5000 0
453.0000 0
453.5000 1
454.0000 2
454.5000 1
455.0000 0
455.5000 0
456.0000 0
456.5000 1
457.0000 0
457.5000 1
458.0000 1
458.5000 3
459.0000 2
459.5000 1
460.0000 1
460.5000 0
461.0000 0
461.5000 1
462.0000 2
462.5000 1
463.0000 0
463.5000 0
464.0000 0
464.5000 0
465.0000 1
465.5000 2
466.0000 1
466.5000 0
467.0000 1
467.5000 2
468.0000 0
468.5000 3
469.0000 2
469.5000 1
470.0000 2
470.5000 1
471.0000 2
471.5000 2
472.0000 0
472.5000 1
473.0000 1
473.5000 0
474.0000 0
474.5000 2
475.0000 0
475.5000 1
476.0000 0
476.5000 0
477.0000 3
477.5000 0
478.0000 3
478.5000 0
479.0000 1
479.5000 3
480.0000 1
480.5000 1
481.0000 1
481.5000 1
482.0000 0
482.5000 1
483.0000 0
483.5000 1
484.0000 3
484.5000 0
485.0000 0
485.5000 0
486.0000 1
486.5000 0
487.0000 0
487.5000 3
488.0000 0
488.5000 2
489.0000 0
489.5000 2
490.0000 1
490.5000 1
491.0000 0
491.5000 1
492.0000 0
492.5000 1
493.0000 1
493.5000 1
494.0000 1
494.5000 2
495.0000 0
495.5000 0
496.0000 1
496.5000 0
497.0000 2
497.5000 0
498.0000 1
498.5000 1
499.0000 2
499.5000 1
500.0000 5
500.5000 1
501.0000 0
501.5000 1
502.0000 1
502.5000 1
503.0000 1
503.5000 0
504.0000 3
504.5000 0
505.0000 1
505.5000 0
506.0000 3
506.5000 0
507.0000 0
507.5000 1
508.0000 0
508.5000 0
509.0000 2
509.5000 2
510.0000 2
510.5000 1
511.0000 1
511.5000 0
512.0000 0
512.5000 0
513.0000 1
513.5000 2
514.0000 0
514.5000 0
515.0000 1
515.5000 2
516.0000 0
516.5000 0
517.0000 4
517.5000 1
518.0000 0
518.5000 0
519.0000 1
519.5000 0
520.0000 2
520.5000 1
521.0000 0
521.5000 1
522.0000 2
522.5000 2
523.0000 1
523.5000 0
524.0000 2
524.5000 3
525.0000 0
525.5000 0
526.0000 0
526.5000 0
527.0000 1
527.5000 3
528.0000 3
528.5000 1
529.0000 1
529.5000 1
530.0000 0
530.5000 2
531.0000 0
531.5000 1
532.0000 6
532.5000 1
533.0000 1
533.5000 1
534.0000 0
534.5000 1
535.0000 1
535.5000 2
536.0000 2
536.5000 0
537.0000 4
537.5000 2
538.0000 5
538.5000 1
539.0000 2
539.5000 2
540.0000 2
540.5000 0
541.0000 0
541.5000 0
542.0000 0
542.5000 3
543.0000 1
543.5000 1
544.0000 1
544.5000 2
545.0000 1
545.5000 1
546.0000 0
546.5000 4
547.0000 1
547.5000 1
548.0000 0
548.5000 2
549.0000 0
549.5000 0
550.0000 0
550.5000 5
551.0000 2
551.5000 1
552.0000 0
552.5000 3
